HW 03
…
# Print dimensions of data frame and confirm tribble table matches homework 
covid_survey_longer

# A tibble: 43,428 × 5
   response_id explanatory    explanatory_value response         
         <dbl> <chr>          <fct>             <chr>            
 1           1 exp_profession Nursing           resp_safety      
 2           1 exp_profession Nursing           resp_confidence_…
 3           1 exp_profession Nursing           resp_concern_saf…
 4           1 exp_profession Nursing           resp_feel_safe_a…
 5           1 exp_profession Nursing           resp_will_recomm…
 6           1 exp_profession Nursing           resp_trust_info  
 7           1 exp_flu_vax    Yes               resp_safety      
 8           1 exp_flu_vax    Yes               resp_confidence_…
 9           1 exp_flu_vax    Yes               resp_concern_saf…
10           1 exp_flu_vax    Yes               resp_feel_safe_a…
# ℹ 43,418 more rows
# ℹ 1 more variable: response_value <dbl>
…
# Group data in covid_survey_longer
covid_survey_summary_stats_by_group <- covid_survey_longer |>
  group_by(explanatory, explanatory_value, response) |>
  summarise(
    mean = mean(response_value, na.rm = TRUE),
    low = quantile(response_value, 0.10, na.rm = TRUE),
    high = quantile(response_value, 0.90, na.rm = TRUE),
    .groups = "drop"
  )

# View the summary tibble
covid_survey_summary_stats_by_group

# A tibble: 126 × 6
   explanatory explanatory_value response        mean   low  high
   <chr>       <fct>             <chr>          <dbl> <dbl> <dbl>
 1 exp_age_bin <20               resp_concern_…  3.35     2   4.4
 2 exp_age_bin <20               resp_confiden…  1.65     1   2.4
 3 exp_age_bin <20               resp_feel_saf…  1.71     1   3.8
 4 exp_age_bin <20               resp_safety     1.41     1   2  
 5 exp_age_bin <20               resp_trust_in…  1.41     1   2  
 6 exp_age_bin <20               resp_will_rec…  1.35     1   1.8
 7 exp_age_bin >30               resp_concern_…  3.01     1   5  
 8 exp_age_bin >30               resp_confiden…  1.71     1   3  
 9 exp_age_bin >30               resp_feel_saf…  1.77     1   4  
10 exp_age_bin >30               resp_safety     1.85     1   4  
# ℹ 116 more rows
…
# Bind both summary tables together
covid_survey_summary_stats <- bind_rows(
  covid_survey_summary_stats_all,
  covid_survey_summary_stats_by_group
)

# Check final dimensions 
dim(covid_survey_summary_stats)

[1] 132   6

# View final summary
covid_survey_summary_stats

# A tibble: 132 × 6
   explanatory explanatory_value response        mean   low  high
   <chr>       <fct>             <chr>          <dbl> <dbl> <dbl>
 1 All         ""                resp_concern_…  3.28     1   5  
 2 All         ""                resp_confiden…  1.43     1   2  
 3 All         ""                resp_feel_saf…  1.36     1   2  
 4 All         ""                resp_safety     2.03     1   5  
 5 All         ""                resp_trust_in…  1.40     1   2  
 6 All         ""                resp_will_rec…  1.21     1   2  
 7 exp_age_bin "<20"             resp_concern_…  3.35     2   4.4
 8 exp_age_bin "<20"             resp_confiden…  1.65     1   2.4
 9 exp_age_bin "<20"             resp_feel_saf…  1.71     1   3.8
10 exp_age_bin "<20"             resp_safety     1.41     1   2  
# ℹ 122 more rows
…
